{
  "AstroNvim": { "branch": "main", "commit": "c82ef216d0776b19cd7229fb916c4b30fbe3484c" },
  "Comment.nvim": { "branch": "master", "commit": "e30b7f2008e52442154b66f7c519bfd2f1e32acb" },
  "LuaSnip": { "branch": "master", "commit": "03c8e67eb7293c404845b3982db895d59c0d1538" },
  "ack.vim": { "branch": "master", "commit": "36e40f9ec91bdbf6f1adf408522a73a6925c3042" },
  "aerial.nvim": { "branch": "master", "commit": "9c29a1a66eb31384888e413e510ba72496e06770" },
  "alpha-nvim": { "branch": "main", "commit": "b6f4129302db197a7249e67a90de3f2b676de13e" },
  "astrocore": { "branch": "main", "commit": "0fcaac66d115948605c14eaf45a41d3923eaafeb" },
  "astrolsp": { "branch": "main", "commit": "2f6b0a4059775a1dac011d2944dd41fd4a8fe7a8" },
  "astrotheme": { "branch": "main", "commit": "b1405cc96823d5f6cdd5a2f7ebeb137183220840" },
  "astroui": { "branch": "main", "commit": "58c4130bd15c28827eab19dcc20fb9483bf5cad8" },
  "autoclose": { "branch": "main", "commit": "b2077aa2c83df7ebc19b2a20a3a0654b24ae9c8f" },
  "better-escape.nvim": { "branch": "master", "commit": "199dcc2643dec5d8dbdab4ec672cf405224dcb3b" },
  "cmp-buffer": { "branch": "main", "commit": "3022dbc9166796b644a841a02de8dd1cc1d311fa" },
  "cmp-dap": { "branch": "master", "commit": "ea92773e84c0ad3288c3bc5e452ac91559669087" },
  "cmp-nvim-lsp": { "branch": "main", "commit": "39e2eda76828d88b773cc27a3f61d2ad782c922d" },
  "cmp-path": { "branch": "main", "commit": "91ff86cd9c29299a64f968ebb45846c485725f23" },
  "cmp_luasnip": { "branch": "master", "commit": "05a9ab28b53f71d1aece421ef32fee2cb857a843" },
  "conform.nvim": { "branch": "master", "commit": "a203480a350b03092e473bf3001733d547160a73" },
  "diffview": { "branch": "main", "commit": "4516612fe98ff56ae0415a259ff6361a89419b0a" },
  "dressing.nvim": { "branch": "master", "commit": "43b8f74e0b1e3f41e51f640f8efa3bcd401cea0d" },
  "friendly-snippets": { "branch": "main", "commit": "00ba9dd3df89509f95437b8d595553707c46d5ea" },
  "fzf": { "branch": "master", "commit": "bee80a730f945c05ac0167130b9204206371d570" },
  "fzf.vim": { "branch": "master", "commit": "556f45e79ae5e3970054fee4c4373472604a1b4e" },
  "git-blame": { "branch": "master", "commit": "2883a7460f611c2705b23f12d58d398d5ce6ec00" },
  "gitsigns.nvim": { "branch": "main", "commit": "0b04035bb7b3c83e999b9676e2fb46fd0aa9f910" },
  "guess-indent.nvim": { "branch": "main", "commit": "6cd61f7a600bb756e558627cd2e740302c58e32d" },
  "heirline.nvim": { "branch": "master", "commit": "cc359b628266cb9a84b2d71c883f2b99e16473a0" },
  "indent-blankline.nvim": { "branch": "master", "commit": "18603eb949eba08300799f64027af11ef922283f" },
  "lazy.nvim": { "branch": "main", "commit": "7967abe55752aa90532e6bb4bd4663fe27a264cb" },
  "lazydev.nvim": { "branch": "main", "commit": "f59bd14a852ca43db38e3662395354cb2a9b13e0" },
  "lspkind.nvim": { "branch": "master", "commit": "cff4ae321a91ee3473a92ea1a8c637e3a9510aec" },
  "luvit-meta": { "branch": "main", "commit": "57d464c4acb5c2e66bd4145060f5dc9e96a7bbb7" },
  "mason-lspconfig.nvim": { "branch": "main", "commit": "25c11854aa25558ee6c03432edfa0df0217324be" },
  "mason-null-ls.nvim": { "branch": "main", "commit": "2b8433f76598397fcc97318d410e0c4f7a4bea6a" },
  "mason-nvim-dap.nvim": { "branch": "main", "commit": "8b9363d83b5d779813cdd2819b8308651cec2a09" },
  "mason.nvim": { "branch": "main", "commit": "c43eeb5614a09dc17c03a7fb49de2e05de203924" },
  "mini.bufremove": { "branch": "main", "commit": "e6044aa28e61d4dd9ec86194d6f81743eced0c1c" },
  "neo-tree.nvim": { "branch": "main", "commit": "a77af2e764c5ed4038d27d1c463fa49cd4794e07" },
  "neoconf.nvim": { "branch": "main", "commit": "c5516054f2342e6fe4d3befd56249d02d5eeb380" },
  "neodev.nvim": { "branch": "main", "commit": "da1562e1e3df0e994ddc52cb4ba22376a5d7f2fc" },
  "none-ls.nvim": { "branch": "main", "commit": "5f041cfc2d763b2ba69b848854240308e0d88d5b" },
  "nui.nvim": { "branch": "main", "commit": "a0fd35fcbb4cb479366f1dc5f20145fd718a3733" },
  "nvim-autopairs": { "branch": "master", "commit": "f158dcb865c36f72c92358f87787dab2c272eaf3" },
  "nvim-cmp": { "branch": "main", "commit": "ae644feb7b67bf1ce4260c231d1d4300b19c6f30" },
  "nvim-colorizer.lua": { "branch": "master", "commit": "0671e0eabc6842676d3310370e8fae4e1c51d7f9" },
  "nvim-dap": { "branch": "master", "commit": "90616ae6ae40053103dc66872886fc26b94c70c8" },
  "nvim-dap-ui": { "branch": "master", "commit": "1c351e4e417d4691da12948b6ecf966936a56d28" },
  "nvim-lspconfig": { "branch": "master", "commit": "dd329912c8d446240584a2dbcd3802af3a19105a" },
  "nvim-nio": { "branch": "master", "commit": "a428f309119086dc78dd4b19306d2d67be884eee" },
  "nvim-notify": { "branch": "master", "commit": "fbef5d32be8466dd76544a257d3f3dce20082a07" },
  "nvim-test": { "branch": "main", "commit": "e06f3d029ee161f3ead6193cf27354d1eb8723c3" },
  "nvim-treesitter": { "branch": "master", "commit": "6511cd984ab4b21e28f83af488f38dc89c3b0586" },
  "nvim-treesitter-textobjects": { "branch": "master", "commit": "bf8d2ad35d1d1a687eae6c065c3d524f7ab61b23" },
  "nvim-ts-autotag": { "branch": "main", "commit": "e239a560f338be31337e7abc3ee42515daf23f5e" },
  "nvim-ts-context-commentstring": { "branch": "main", "commit": "375c2d86cee6674afd75b4f727ce3a80065552f7" },
  "nvim-ufo": { "branch": "main", "commit": "a5390706f510d39951dd581f6d2a972741b3fa26" },
  "nvim-web-devicons": { "branch": "master", "commit": "26220156aafb198b2de6a4cf80c1b120a3768da0" },
  "nvim-window-picker": { "branch": "main", "commit": "41cfaa428577c53552200a404ae9b3a0b5719706" },
  "plenary.nvim": { "branch": "master", "commit": "2d9b06177a975543726ce5c73fca176cedbffe9d" },
  "promise-async": { "branch": "main", "commit": "38a4575da9497326badd3995e768b4ccf0bb153e" },
  "rainbow": { "branch": "master", "commit": "76ca1a20aa42edb5c65c19029968aad4625790dc" },
  "resession.nvim": { "branch": "master", "commit": "cc819b0489938d03e4f3532a583354f0287c015b" },
  "smart-splits.nvim": { "branch": "master", "commit": "00fba7a0e912a8d82da91a3b6b11d641fa500bd8" },
  "telescope-fzf-native.nvim": { "branch": "main", "commit": "cf48d4dfce44e0b9a2e19a008d6ec6ea6f01a83b" },
  "telescope.nvim": { "branch": "master", "commit": "b324469959908c1c7434eb65d80e87895e6828f7" },
  "todo-comments.nvim": { "branch": "main", "commit": "ae0a2afb47cf7395dc400e5dc4e05274bf4fb9e0" },
  "toggleterm.nvim": { "branch": "main", "commit": "022ff5594acccc8d90d2e46dc43994f7722ebdf7" },
  "vim-fugitive": { "branch": "master", "commit": "320b18fba2a4f2fe3c8225c778c687e0d2620384" },
  "vim-gitgutter": { "branch": "main", "commit": "7b0b5098e3e57be86bb96cfbf2b8902381eef57c" },
  "vim-illuminate": { "branch": "master", "commit": "5eeb7951fc630682c322e88a9bbdae5c224ff0aa" },
  "vim-jinja": { "branch": "master", "commit": "7c54e2320c5f676636cdd8697480782eebfb2bf2" },
  "vim-monokai-tasty": { "branch": "master", "commit": "c585c4ff0744315c6c03fd54afa7c8ca23b039c0" },
  "vim-mundo": { "branch": "master", "commit": "2ceda8c65f7b3f9066820729fc02003a09df91f9" },
  "vim-pencil": { "branch": "master", "commit": "6d70438a8886eaf933c38a7a43a61adb0a7815ed" },
  "vim-repeat": { "branch": "master", "commit": "65846025c15494983dafe5e3b46c8f88ab2e9635" },
  "vim-surround": { "branch": "master", "commit": "3d188ed2113431cf8dac77be61b842acb64433d9" },
  "vim-swap": { "branch": "master", "commit": "9358bfdc5e377aa13e7c2c2dd8699ba32b0dcf83" },
  "vim-visual-multi": { "branch": "master", "commit": "a6975e7c1ee157615bbc80fc25e4392f71c344d4" },
  "which-key.nvim": { "branch": "main", "commit": "fb070344402cfc662299d9914f5546d840a22126" }
}
